<svg width="10" height="11" viewBox="0 0 10 11" fill="none" xmlns="http://www.w3.org/2000/svg">
<path d="M5 0.985352C5.16576 0.985352 5.32481 1.05122 5.44202 1.16843C5.55923 1.28564 5.625 1.44459 5.625 1.61035V5.36237H9.375C9.54076 5.36237 9.69981 5.4282 9.81702 5.54541C9.93423 5.66262 10 5.82161 10 5.98737C10 6.15313 9.93423 6.31211 9.81702 6.42932C9.69981 6.54653 9.54076 6.61237 9.375 6.61237H5.625V10.3624C5.625 10.5281 5.55923 10.6871 5.44202 10.8043C5.32481 10.9215 5.16576 10.9874 5 10.9874C4.83424 10.9874 4.67532 10.9215 4.55811 10.8043C4.4409 10.6871 4.375 10.5281 4.375 10.3624V6.61237H0.625C0.45924 6.61237 0.300316 6.54653 0.183105 6.42932C0.0658952 6.31211 0 6.15313 0 5.98737C0 5.82161 0.0658952 5.66262 0.183105 5.54541C0.300316 5.4282 0.45924 5.36237 0.625 5.36237H4.375V1.61237C4.37474 1.53012 4.39071 1.44865 4.422 1.37259C4.45329 1.29653 4.49931 1.22738 4.55737 1.16913C4.61544 1.11088 4.68442 1.06468 4.76038 1.03314C4.83634 1.00161 4.91776 0.985351 5 0.985352Z" fill="#0050A6"/>
</svg>
