<?xml version="1.0" encoding="utf-8"?>
<!-- Generator: Adobe Illustrator 24.0.0, SVG Export Plug-In . SVG Version: 6.00 Build 0)  -->
<svg version="1.1" id="Layer_1" xmlns="http://www.w3.org/2000/svg" xmlns:xlink="http://www.w3.org/1999/xlink" x="0px" y="0px"
	 viewBox="0 0 20 20" style="enable-background:new 0 0 20 20;" xml:space="preserve">
<style type="text/css">
	.st0{fill:#E8E8E8;}
	.st1{fill:#4B4B4B;}
</style>
<circle class="st0" cx="10" cy="10" r="10"/>
<g>
	<path class="st1" d="M4.64,5.36C4.64,5.16,4.8,5,5,5h1.07c0.16,0,0.31,0.11,0.35,0.27l0.29,1.16H15c0.2,0,0.36,0.16,0.36,0.36
		c0,0.03,0,0.06-0.01,0.09l-1.07,4.29c-0.04,0.16-0.18,0.27-0.35,0.27H7.5c-0.16,0-0.31-0.11-0.35-0.27L5.79,5.71H5
		C4.8,5.71,4.64,5.55,4.64,5.36z M6.89,7.14l0.89,3.57h5.87l0.89-3.57H6.89z M8.21,12.86c-0.39,0-0.71,0.32-0.71,0.71
		s0.32,0.71,0.71,0.71c0.39,0,0.71-0.32,0.71-0.71S8.61,12.86,8.21,12.86z M6.79,13.57c0-0.79,0.64-1.43,1.43-1.43
		c0.79,0,1.43,0.64,1.43,1.43C9.64,14.36,9,15,8.21,15C7.43,15,6.79,14.36,6.79,13.57z M13.21,12.86c-0.39,0-0.71,0.32-0.71,0.71
		s0.32,0.71,0.71,0.71c0.39,0,0.71-0.32,0.71-0.71S13.61,12.86,13.21,12.86z M11.79,13.57c0-0.79,0.64-1.43,1.43-1.43
		c0.79,0,1.43,0.64,1.43,1.43c0,0.79-0.64,1.43-1.43,1.43C12.43,15,11.79,14.36,11.79,13.57z"/>
</g>
</svg>
