<svg width="125" height="101" viewBox="0 0 125 101" fill="none" xmlns="http://www.w3.org/2000/svg">
<path d="M123.447 0.557459C123.344 0.537919 123.24 0.530192 123.136 0.534449C123.106 0.515984 123.073 0.504592 123.038 0.501124C123.003 0.497655 122.968 0.502245 122.936 0.51449C122.784 0.512846 122.633 0.533371 122.487 0.575464C122.431 0.579234 122.374 0.586615 122.319 0.597498C122.299 0.604498 122.283 0.620466 122.265 0.627466C122.247 0.634466 122.239 0.6275 122.228 0.6365L1.41054 54.6365C1.09536 54.7781 0.83329 55.0163 0.662373 55.3166C0.491457 55.6169 0.420552 55.9638 0.459737 56.3071C0.498921 56.6504 0.646199 56.9723 0.880391 57.2264C1.11458 57.4805 1.42348 57.6535 1.76247 57.7205L35.0465 64.2485L47.2025 98.0035C47.3163 98.3182 47.524 98.5903 47.7977 98.7828C48.0715 98.9753 48.3979 99.0789 48.7326 99.0795C48.7736 99.0795 48.8155 99.0795 48.8585 99.0745C49.2139 99.0478 49.5506 98.905 49.8168 98.6681C50.083 98.4312 50.2639 98.1133 50.3316 97.7635L55.6715 70.4575L119.787 7.45748L97.8135 84.4985L73.4416 75.2105L60.9235 70.4405C60.7103 70.3607 60.4827 70.3267 60.2555 70.3405C60.1985 70.3405 60.1465 70.3695 60.0885 70.3785C59.9259 70.3996 59.7676 70.4462 59.6195 70.5165C59.5995 70.5265 59.5785 70.5244 59.5595 70.5344C59.5055 70.5654 59.4715 70.6205 59.4195 70.6565C59.3034 70.733 59.1988 70.8256 59.1085 70.9315C59.0507 71.0062 58.9995 71.0858 58.9555 71.1695C58.9059 71.2358 58.8618 71.3061 58.8235 71.3795C58.8127 71.4267 58.8043 71.4744 58.7985 71.5225C58.7875 71.5615 58.7586 71.5945 58.7486 71.6345L53.2705 98.5525C53.1976 98.9099 53.2467 99.2815 53.4098 99.6078C53.573 99.9341 53.8408 100.196 54.1706 100.353C54.3896 100.455 54.6286 100.508 54.8705 100.508C55.1121 100.509 55.3507 100.455 55.5689 100.351C55.787 100.247 55.9793 100.096 56.1315 99.9085L73.3836 78.6755L98.3145 88.1755C98.5252 88.2555 98.7503 88.2908 98.9754 88.2793C99.2004 88.2677 99.4206 88.2096 99.6221 88.1085C99.8235 88.0075 100.002 87.8657 100.146 87.6922C100.289 87.5187 100.396 87.3172 100.458 87.1005L124.569 2.57949C124.63 2.373 124.649 2.15657 124.625 1.94277C124.601 1.72898 124.535 1.52202 124.43 1.33395C124.326 1.14588 124.185 0.980421 124.016 0.847132C123.847 0.713843 123.654 0.615375 123.447 0.557459ZM108.031 10.5465L63.7135 41.5995L35.8975 61.0905L7.42556 55.5065L108.031 10.5465Z" fill="#0050A6"/>
</svg>
