<?xml version="1.0" encoding="utf-8"?>
<!-- Generator: Adobe Illustrator 24.0.0, SVG Export Plug-In . SVG Version: 6.00 Build 0)  -->
<svg version="1.1" id="Layer_1" xmlns="http://www.w3.org/2000/svg" xmlns:xlink="http://www.w3.org/1999/xlink" x="0px" y="0px"
	 viewBox="0 0 32.64 24" style="enable-background:new 0 0 32.64 24;" xml:space="preserve">
<style type="text/css">
	.st0{fill:#8C8C8C;}
	.st1{fill:#9DCDFF;}
	.st2{fill:#0050A6;}
</style>
<g>
	<path class="st2" d="M0.8,24C0.36,24,0,23.64,0,23.2V8.53c0-0.44,0.36-0.8,0.8-0.8h6.36V0.8c0-0.44,0.36-0.8,0.8-0.8h23.87
		c0.44,0,0.8,0.36,0.8,0.8v17.05c0,0.44-0.36,0.8-0.8,0.8h-9.54v4.54c0,0.44-0.36,0.8-0.8,0.8H0.8z M1.6,22.4h19.09l0-8.29H1.6V22.4
		z M19.9,6.29c2.21,0,3.93,1.34,3.93,3.04c0,0.89-0.5,1.74-1.37,2.31l-0.18,0.12l0,5.3h4.25l0.07-0.31
		c0.44-2.06,2.06-3.68,4.12-4.12l0.31-0.07l0-6.46l-0.31-0.07c-2.06-0.44-3.68-2.06-4.12-4.12L26.54,1.6H13.26L13.2,1.91
		c-0.44,2.06-2.06,3.68-4.12,4.12L8.77,6.1v1.63h7.77l0.12-0.13C17.39,6.78,18.6,6.29,19.9,6.29z M30.5,14.35
		c-1,0.38-1.79,1.17-2.17,2.17l-0.2,0.53h2.9v-2.9L30.5,14.35z M1.6,12.51h19.09l0-3.17H1.6V12.51z M28.34,2.14
		c0.38,1,1.17,1.79,2.17,2.17l0.53,0.2V1.6h-2.9L28.34,2.14z M8.77,4.51L9.3,4.3c1-0.38,1.79-1.17,2.17-2.17l0.2-0.53h-2.9V4.51z"/>
	<path class="st2" d="M5.58,18.88c-0.44,0-0.8-0.36-0.8-0.8s0.36-0.8,0.8-0.8h3.98c0.44,0,0.8,0.36,0.8,0.8c0,0.44-0.36,0.8-0.8,0.8
		H5.58z"/>
</g>
</svg>
