<svg width="21" height="21" viewBox="0 0 21 21" fill="none" xmlns="http://www.w3.org/2000/svg">
<path d="M0.0190437 1.4502C0.0189123 1.36265 0.036048 1.27594 0.0694588 1.19502C0.10287 1.1141 0.151889 1.04057 0.213746 0.978623C0.275603 0.916673 0.349064 0.867532 0.429932 0.834C0.5108 0.800468 0.597515 0.783203 0.685059 0.783204H2.68506C2.83381 0.783035 2.97832 0.83267 3.09558 0.924195C3.21284 1.01572 3.29607 1.14387 3.33203 1.28821L3.87195 3.4502H19.3521C19.4396 3.45006 19.5264 3.46723 19.6073 3.50072C19.6882 3.5342 19.7617 3.58335 19.8236 3.64533C19.8855 3.7073 19.9345 3.7809 19.9679 3.86188C20.0013 3.94286 20.0183 4.02962 20.0181 4.1172C20.0182 4.16087 20.0138 4.20444 20.005 4.24721L18.672 10.9142C18.643 11.0596 18.5662 11.1911 18.4539 11.2879C18.3415 11.3846 18.2001 11.441 18.052 11.4482L5.52295 12.0782L5.90503 14.1162H17.3521C17.5289 14.1162 17.6985 14.1865 17.8236 14.3116C17.9487 14.4366 18.019 14.6063 18.019 14.7832C18.019 14.9601 17.9487 15.1298 17.8236 15.2548C17.6985 15.3799 17.5289 15.4502 17.3521 15.4502H5.35205C5.19664 15.4499 5.04619 15.3954 4.92664 15.2961C4.80708 15.1968 4.72587 15.0589 4.69702 14.9062L2.69702 4.2592L2.16296 2.1162H0.682984C0.506697 2.11567 0.337847 2.04527 0.21338 1.92043C0.0889127 1.79558 0.0190429 1.62648 0.0190437 1.4502ZM4.15503 4.7832L5.27503 10.7552L17.467 10.1432L18.5391 4.7832H4.15503ZM6.68506 15.4502C6.15753 15.4502 5.64186 15.6066 5.20325 15.8997C4.76464 16.1928 4.42278 16.6094 4.22095 17.0968C4.01912 17.5842 3.96635 18.1205 4.06934 18.6379C4.17232 19.1553 4.42647 19.6305 4.79956 20.0034C5.17265 20.3764 5.64787 20.6303 6.16528 20.7331C6.6827 20.8359 7.21899 20.7829 7.7063 20.5809C8.19361 20.3789 8.61014 20.0369 8.90308 19.5982C9.19601 19.1595 9.35225 18.6437 9.35205 18.1162C9.35205 17.766 9.28297 17.4193 9.14893 17.0957C9.01488 16.7722 8.81847 16.4783 8.5708 16.2307C8.32313 15.9831 8.02914 15.7868 7.70557 15.6528C7.382 15.5189 7.03525 15.4501 6.68506 15.4502ZM16.019 15.4502C15.4915 15.45 14.9757 15.6063 14.537 15.8993C14.0982 16.1922 13.7562 16.6088 13.5542 17.0961C13.3522 17.5835 13.2993 18.1198 13.4022 18.6373C13.5051 19.1547 13.7592 19.63 14.1322 20.0031C14.5052 20.3761 14.9805 20.6301 15.4979 20.733C16.0154 20.8359 16.5517 20.783 17.0391 20.581C17.5264 20.379 17.943 20.037 18.236 19.5983C18.5289 19.1595 18.6853 18.6438 18.6851 18.1162C18.6851 17.4091 18.4041 16.731 17.9042 16.231C17.4042 15.7311 16.7261 15.4502 16.019 15.4502ZM6.68506 16.7832C6.9487 16.7832 7.20633 16.8614 7.42554 17.0079C7.64475 17.1543 7.81561 17.3625 7.9165 17.6061C8.0174 17.8497 8.04387 18.1177 7.99243 18.3763C7.941 18.6348 7.81399 18.8724 7.62756 19.0588C7.44114 19.2452 7.20365 19.3722 6.94507 19.4236C6.68649 19.475 6.4185 19.4486 6.17493 19.3477C5.93135 19.2468 5.72313 19.076 5.57666 18.8568C5.43019 18.6376 5.35205 18.3798 5.35205 18.1162C5.35205 17.9411 5.3865 17.7678 5.45349 17.6061C5.52048 17.4444 5.61865 17.2974 5.74243 17.1736C5.86621 17.0498 6.0132 16.9517 6.17493 16.8847C6.33665 16.8177 6.51001 16.7832 6.68506 16.7832ZM16.019 16.7832C16.2826 16.7834 16.5402 16.8617 16.7593 17.0083C16.9784 17.1549 17.1491 17.3632 17.2499 17.6068C17.3506 17.8504 17.3769 18.1184 17.3253 18.3769C17.2738 18.6354 17.1467 18.8728 16.9602 19.0591C16.7737 19.2455 16.5363 19.3723 16.2777 19.4237C16.0192 19.475 15.7512 19.4486 15.5077 19.3476C15.2642 19.2467 15.056 19.0759 14.9095 18.8567C14.7631 18.6375 14.6851 18.3798 14.6851 18.1162C14.6851 17.9411 14.7196 17.7676 14.7866 17.6059C14.8537 17.4441 14.9519 17.2971 15.0758 17.1733C15.1997 17.0495 15.3467 16.9513 15.5085 16.8844C15.6704 16.8175 15.8439 16.7831 16.019 16.7832Z" fill="#219EBC"/>
</svg>
