<?xml version="1.0" encoding="utf-8"?>
<!-- Generator: Adobe Illustrator 24.0.0, SVG Export Plug-In . SVG Version: 6.00 Build 0)  -->
<svg version="1.1" id="Layer_1" xmlns="http://www.w3.org/2000/svg" xmlns:xlink="http://www.w3.org/1999/xlink" x="0px" y="0px"
	 viewBox="0 0 10.4 12" style="enable-background:new 0 0 10.4 12;" xml:space="preserve">
<style type="text/css">
	.st0{fill:#8C8C8C;}
	.st1{fill-rule:evenodd;clip-rule:evenodd;fill:#8C8C8C;}
	.st2{fill:#E3F8FA;}
	.st3{fill:#26C6DA;}
	.st4{fill:#E7F2FF;}
	.st5{fill:#0050A6;}
	.st6{fill:#FDEAEA;}
	.st7{fill:#A91116;}
</style>
<g>
	<g>
		<path class="st0" d="M3.2,4.4c0.22,0,0.4,0.18,0.4,0.4v4.8c0,0.22-0.18,0.4-0.4,0.4S2.8,9.82,2.8,9.6V4.8
			C2.8,4.58,2.98,4.4,3.2,4.4z M5.2,4.4c0.22,0,0.4,0.18,0.4,0.4v4.8c0,0.22-0.18,0.4-0.4,0.4S4.8,9.82,4.8,9.6V4.8
			C4.8,4.58,4.98,4.4,5.2,4.4z M7.6,4.8c0-0.22-0.18-0.4-0.4-0.4c-0.22,0-0.4,0.18-0.4,0.4v4.8c0,0.22,0.18,0.4,0.4,0.4
			c0.22,0,0.4-0.18,0.4-0.4V4.8z"/>
		<path class="st1" d="M10.4,2.4c0,0.44-0.36,0.8-0.8,0.8H9.2v7.2c0,0.88-0.72,1.6-1.6,1.6H2.8c-0.88,0-1.6-0.72-1.6-1.6V3.2H0.8
			C0.36,3.2,0,2.84,0,2.4V1.6c0-0.44,0.36-0.8,0.8-0.8h2.8C3.6,0.36,3.96,0,4.4,0H6c0.44,0,0.8,0.36,0.8,0.8h2.8
			c0.44,0,0.8,0.36,0.8,0.8V2.4z M2.09,3.2L2,3.25v7.15c0,0.44,0.36,0.8,0.8,0.8h4.8c0.44,0,0.8-0.36,0.8-0.8V3.25L8.31,3.2H2.09z
			 M0.8,2.4V1.6h8.8v0.8H0.8z"/>
	</g>
</g>
</svg>
