<svg width="109" height="101" viewBox="0 0 109 101" fill="none" xmlns="http://www.w3.org/2000/svg">
<path d="M105.314 68.6344L73.8289 42.6754C74.4416 41.1798 74.4583 39.5064 73.8756 37.9989C73.293 36.4914 72.1552 35.2642 70.696 34.5694L73.2489 32.0164C75.0436 32.4978 76.9469 32.3733 78.6636 31.6623C80.3803 30.9513 81.8143 29.6935 82.7431 28.0842C83.6719 26.4749 84.0434 24.604 83.8002 22.7619C83.557 20.9198 82.7126 19.2095 81.398 17.8964L66.476 2.97542C65.1635 1.66075 63.4535 0.816157 61.6119 0.572739C59.7702 0.329321 57.8997 0.700674 56.2907 1.6292C54.6817 2.55772 53.4242 3.99147 52.7134 5.70784C52.0027 7.42421 51.8784 9.3272 52.3599 11.1214L32.8499 30.6324C31.0547 30.1516 29.1512 30.2766 27.4342 30.9879C25.7173 31.6992 24.283 32.9571 23.3538 34.5665C22.4246 36.176 22.0524 38.047 22.2948 39.8895C22.5373 41.7321 23.381 43.4431 24.695 44.7574L39.6159 59.6804C40.9309 60.9925 42.6419 61.8344 44.4838 62.0758C46.3257 62.3171 48.1957 61.9444 49.8044 61.0153C51.413 60.0863 52.6704 58.6528 53.3819 56.9368C54.0934 55.2209 54.2192 53.3181 53.7399 51.5234L56.285 48.9794C56.98 50.4289 58.1999 51.5604 59.6975 52.1446C61.1952 52.7289 62.8589 52.7224 64.352 52.1264L90.4109 83.5464C90.4529 83.5964 90.4969 83.6444 90.5429 83.6904C91.5225 84.6701 92.6856 85.4473 93.9656 85.9776C95.2456 86.5078 96.6176 86.7807 98.0031 86.7808C99.3886 86.7808 100.761 86.508 102.041 85.9778C103.321 85.4476 104.484 84.6706 105.463 83.6909C106.443 82.7113 107.22 81.5482 107.751 80.2682C108.281 78.9882 108.554 77.6162 108.554 76.2307C108.554 74.8452 108.281 73.4733 107.751 72.1933C107.221 70.9132 106.444 69.7501 105.464 68.7704C105.416 68.7224 105.365 68.6774 105.314 68.6344ZM57.524 5.95842C57.9157 5.56647 58.3808 5.25552 58.8927 5.04338C59.4047 4.83124 59.9534 4.72206 60.5075 4.72206C61.0616 4.72206 61.6103 4.83124 62.1222 5.04338C62.6342 5.25552 63.0992 5.56647 63.4909 5.95842L78.4129 20.8804C78.8049 21.2721 79.1161 21.7371 79.3284 22.249C79.5407 22.7609 79.6502 23.3096 79.6504 23.8638C79.6507 24.418 79.5418 24.9668 79.33 25.4789C79.1182 25.991 78.8076 26.4563 78.4159 26.8484C78.0243 27.2405 77.5592 27.5515 77.0473 27.7639C76.5354 27.9762 75.9867 28.0856 75.4325 28.0859C74.8784 28.0862 74.3295 27.9773 73.8174 27.7655C73.3053 27.5537 72.84 27.2431 72.4479 26.8514L72.429 26.8324L57.4989 11.8994C56.7215 11.1046 56.2882 10.0356 56.2929 8.92378C56.2976 7.81195 56.7398 6.74668 57.524 5.95842ZM48.5679 56.6954C48.1761 57.0872 47.711 57.3981 47.1991 57.6101C46.6872 57.8222 46.1385 57.9314 45.5844 57.9314C45.0303 57.9314 44.4817 57.8222 43.9698 57.6101C43.4579 57.3981 42.9928 57.0872 42.601 56.6954L27.679 41.7734C26.8871 40.9824 26.4417 39.9092 26.4411 38.7899C26.4404 37.6706 26.8844 36.5969 27.6755 35.8049C28.4665 35.013 29.5397 34.5677 30.659 34.567C31.7783 34.5664 32.852 35.0104 33.644 35.8014L48.5669 50.7244C49.3594 51.5166 49.8047 52.5912 49.8048 53.7117C49.805 54.8322 49.3601 55.9069 48.5679 56.6994V56.6954ZM51.5529 47.7414L36.632 32.8214L54.54 14.9134L57.524 17.8974L53.0479 22.3744C52.6521 22.7701 52.4297 23.3069 52.4296 23.8666C52.4295 24.4263 52.6517 24.9631 53.0474 25.3589C53.4431 25.7547 53.9799 25.9772 54.5396 25.9773C55.0993 25.9774 55.6361 25.7551 56.0319 25.3594L60.5089 20.8824L69.4629 29.8364L63.544 35.7544C63.526 35.7734 63.506 35.7914 63.492 35.8054L57.524 41.7754L51.5529 47.7414ZM60.507 47.7414C60.3109 47.5457 60.1552 47.3132 60.049 47.0573C59.9428 46.8013 59.8882 46.527 59.8882 46.2499C59.8882 45.9728 59.9428 45.6985 60.049 45.4425C60.1552 45.1866 60.3109 44.9541 60.507 44.7584L66.4419 38.8224C66.4569 38.8084 66.473 38.7934 66.488 38.7774C66.8746 38.396 67.3934 38.1784 67.9364 38.1699C68.4795 38.1615 69.0049 38.3629 69.4031 38.7322C69.8014 39.1014 70.0418 39.6101 70.0744 40.1522C70.107 40.6943 69.9291 41.2281 69.5779 41.6424C69.5299 41.6904 69.4849 41.7424 69.4419 41.7934L63.4899 47.7434C63.4679 47.7654 63.4449 47.7864 63.4219 47.8064L63.4059 47.8214C63.0045 48.1821 62.4799 48.3748 61.9405 48.3599C61.401 48.345 60.888 48.1236 60.507 47.7414ZM102.479 80.7074C101.304 81.8847 99.7124 82.5516 98.0491 82.5636C96.3858 82.5755 94.7848 81.9316 93.5929 80.7714L67.6769 49.5234L71.2139 45.9894L102.546 71.8224C103.705 73.0146 104.349 74.6156 104.336 76.2786C104.324 77.9417 103.656 79.5329 102.479 80.7074Z" fill="#0050A6"/>
<path d="M2.62561 100.499H53.2737C53.5497 100.498 53.8229 100.443 54.0775 100.337C54.3322 100.231 54.5631 100.075 54.7573 99.8787C54.9515 99.6825 55.105 99.4499 55.2089 99.1942C55.3127 98.9385 55.365 98.6648 55.3627 98.3888V92.0578C55.3653 90.7509 54.9628 89.4753 54.2107 88.4066C53.4586 87.3378 52.3937 86.5284 51.1626 86.0898V85.7268C51.1594 82.9293 50.0467 80.2473 48.0685 78.2692C46.0903 76.2912 43.4081 75.1787 40.6106 75.1758H15.2876C12.4902 75.179 9.80825 76.2916 7.83008 78.2695C5.85191 80.2475 4.73904 82.9294 4.7356 85.7268V86.0898C3.50223 86.5275 2.43454 87.336 1.67883 88.4045C0.923126 89.473 0.516468 90.7491 0.514648 92.0578V98.3888C0.514648 98.666 0.569193 98.9404 0.675293 99.1965C0.781393 99.4525 0.936897 99.6852 1.13293 99.8811C1.32897 100.077 1.56176 100.232 1.81787 100.338C2.07398 100.444 2.34844 100.499 2.62561 100.499ZM15.2876 79.3988H40.6106C42.2892 79.4007 43.8986 80.0682 45.0857 81.2551C46.2727 82.4419 46.9405 84.0512 46.9426 85.7298H8.95667C8.95852 84.0513 9.6261 82.442 10.813 81.2551C11.9999 80.0682 13.6091 79.4007 15.2876 79.3988ZM4.7146 92.0608C4.71987 91.4992 4.94673 90.9624 5.34583 90.5672C5.74492 90.172 6.28395 89.9505 6.84558 89.9508H49.0526C49.6121 89.9513 50.1485 90.1738 50.5441 90.5694C50.9397 90.965 51.1621 91.5013 51.1626 92.0608V96.2818H4.7146V92.0608Z" fill="#0050A6"/>
<path d="M2.62463 54.0721H12.3326C12.8844 54.0601 13.4095 53.8324 13.7955 53.4379C14.1815 53.0435 14.3977 52.5135 14.3977 51.9616C14.3977 51.4097 14.1815 50.8797 13.7955 50.4852C13.4095 50.0908 12.8844 49.8631 12.3326 49.8511H2.62463C2.34361 49.845 2.06427 49.895 1.80286 49.9984C1.54144 50.1017 1.3032 50.2561 1.10229 50.4527C0.901385 50.6493 0.741791 50.884 0.632812 51.1431C0.523834 51.4022 0.467773 51.6805 0.467773 51.9616C0.467773 52.2427 0.523834 52.5209 0.632812 52.78C0.741791 53.0391 0.901385 53.2739 1.10229 53.4705C1.3032 53.6671 1.54144 53.8215 1.80286 53.9248C2.06427 54.0281 2.34361 54.0782 2.62463 54.0721Z" fill="#0050A6"/>
<path d="M13.8236 43.7759C14.2194 44.1716 14.7563 44.3939 15.316 44.3938C15.8757 44.3937 16.4124 44.1713 16.8081 43.7754C17.2038 43.3796 17.4261 42.8428 17.426 42.2831C17.4259 41.7234 17.2035 41.1866 16.8076 40.7909L10.8376 34.8229C10.4418 34.4272 9.90504 34.205 9.34534 34.2051C8.78563 34.2052 8.24885 34.4276 7.85315 34.8234C7.45745 35.2193 7.23526 35.7561 7.23535 36.3158C7.23545 36.8755 7.4578 37.4122 7.85364 37.8079L13.8236 43.7759Z" fill="#0050A6"/>
<path d="M13.8242 60.1472L7.85419 66.1152C7.46893 66.5131 7.25546 67.0464 7.25983 67.6002C7.26421 68.1541 7.48613 68.684 7.87763 69.0758C8.26913 69.4676 8.7989 69.6898 9.35273 69.6945C9.90656 69.6993 10.44 69.4861 10.8382 69.1011L16.8082 63.1321C17.204 62.7364 17.4265 62.1997 17.4266 61.64C17.4267 61.0803 17.2044 60.5435 16.8087 60.1476C16.413 59.7518 15.8763 59.5294 15.3166 59.5293C14.7569 59.5292 14.22 59.7515 13.8242 60.1472Z" fill="#0050A6"/>
</svg>
