<svg width="23" height="21" viewBox="0 0 23 21" fill="none" xmlns="http://www.w3.org/2000/svg">
<path fill-rule="evenodd" clip-rule="evenodd" d="M11.2912 18.5768C11.264 18.5093 11.1742 18.4886 11.1174 18.5363C10.8296 18.7783 10.4619 18.9365 10.0626 18.9365C9.14773 18.9365 8.39913 18.1068 8.39486 17.3381H11.4074L11.8594 16.8178L11.7504 16.5965L11.5713 16.5937C11.0468 16.584 10.5943 16.2676 10.3595 15.8483H2.4556V14.5963L4.32405 12.7506C4.32405 10.9847 4.32405 9.46012 4.32405 9.13909C4.32405 6.42345 6.19249 4.19217 8.86151 3.64883V3.12704C8.86151 2.57037 9.24687 2.06037 9.81239 1.94242C10.5914 1.78012 11.2638 2.3996 11.2638 3.12012C11.2638 3.17371 11.2638 3.37165 11.2638 3.64883C13.5096 4.10576 15.184 5.7596 15.66 7.8896C15.669 7.93037 15.7167 7.94704 15.7517 7.92242C15.9832 7.76012 16.2641 7.66089 16.5693 7.66089H17.062C17.1287 7.66089 17.1793 7.60089 17.1649 7.53832C16.6378 5.24858 14.9996 3.37499 12.7447 2.52499C12.4675 1.32499 11.3704 0.42627 10.0629 0.42627C8.75544 0.42627 7.65825 1.32499 7.38082 2.52499C4.61853 3.56627 2.77567 6.14165 2.77567 9.13909V12.145L1.13402 13.7668C0.98851 13.9104 0.907227 14.1029 0.907227 14.3035V16.5932C0.907227 17.0047 1.25395 17.3381 1.68141 17.3381H6.84649C6.85049 18.984 8.35142 20.4263 10.0629 20.4263C10.8632 20.4263 11.615 20.1083 12.1917 19.6042L11.5969 19.0319C11.4586 18.8988 11.3584 18.7429 11.2912 18.5768Z" fill="#8C8C8C"/>
<path fill-rule="evenodd" clip-rule="evenodd" d="M22.5648 13.6514C22.5648 13.6514 21.6768 13.5783 21.1966 13.4647C21.1572 13.4552 21.1572 13.4552 21.1572 13.4552C21.1169 13.4398 21.0527 13.3411 21.0143 13.2352C20.9759 13.1306 20.8768 12.7573 20.9072 12.6288C20.9072 12.6288 20.9072 12.6288 20.9991 12.5049C21.4511 11.8949 21.8663 11.477 21.8663 11.477C21.9969 11.3462 21.9942 11.1334 21.861 11.0055L20.9957 10.1726C20.8627 10.0447 20.642 10.0421 20.5053 10.1675C20.5053 10.1675 20.032 10.6032 19.3967 10.9419C19.2573 11.0165 19.2573 11.0165 19.2573 11.0165C19.0875 11.0278 18.8573 10.9993 18.7464 10.9529C18.6355 10.9065 18.3229 10.7837 18.3141 10.7537C18.3141 10.7537 18.3141 10.7537 18.3088 10.7234C18.1801 9.98443 18.1659 9.22648 18.1659 9.22648C18.1622 9.04495 18.005 8.89648 17.8166 8.89648H16.5931C16.4044 8.89648 16.2474 9.04495 16.2437 9.22648C16.2437 9.22648 16.2277 10.0367 16.0275 10.7088C16.015 10.7508 16.015 10.7508 16.015 10.7508C15.9948 10.7939 15.9132 10.8498 15.8354 10.8757C15.7568 10.9014 15.4023 10.978 15.2131 10.9755C15.2131 10.9755 15.1979 10.9755 15.0351 10.8885C14.3992 10.5501 13.9267 10.1152 13.9267 10.1152C13.7908 9.98956 13.5693 9.99213 13.4363 10.1203L12.571 10.9529C12.438 11.0808 12.4351 11.2932 12.5654 11.4247C12.5654 11.4247 12.9809 11.8414 13.4326 12.4516C13.515 12.5624 13.515 12.5624 13.515 12.5624C13.5469 12.6793 13.5283 12.8673 13.4728 12.9808C13.4174 13.0944 13.2602 13.4278 13.2111 13.4501C13.2111 13.4501 13.2111 13.4501 13.1621 13.4637C12.4636 13.657 11.8088 13.6708 11.8088 13.6708C11.6204 13.6742 11.4658 13.8265 11.4658 14.0078V15.1852C11.4658 15.3665 11.6204 15.5185 11.8088 15.5221C11.8088 15.5221 12.409 15.5342 13.177 15.6578C13.2154 15.6637 13.2154 15.6637 13.2154 15.6637C13.2538 15.6739 13.3191 15.7762 13.3601 15.8916C13.4012 16.0067 13.512 16.408 13.4832 16.5421C13.4832 16.5421 13.4832 16.5421 13.3876 16.6711C12.9358 17.2811 12.5204 17.6978 12.5204 17.6978C12.39 17.8285 12.3927 18.0416 12.526 18.1696L13.3913 19.0021C13.5243 19.1301 13.7449 19.1329 13.8817 19.0075C13.8817 19.0075 14.3542 18.5716 14.9903 18.2332C15.1502 18.148 15.159 18.148 15.159 18.148C15.3474 18.1439 15.5657 18.1655 15.643 18.198C15.7208 18.2298 15.9593 18.3508 15.9924 18.4111C15.9924 18.4111 15.9924 18.4111 16.0102 18.4711C16.2112 19.1432 16.2253 19.7732 16.2253 19.7732C16.2298 19.9544 16.387 20.1031 16.5755 20.1031H17.7992C17.9877 20.1031 18.146 19.9544 18.1494 19.7732C18.1494 19.7732 18.163 19.1957 18.2915 18.4567C18.2987 18.4144 18.2987 18.4144 18.2987 18.4144C18.3109 18.3734 18.4093 18.3106 18.5175 18.2755C18.6254 18.2401 19.0531 18.1344 19.2418 18.1414C19.2418 18.1414 19.2418 18.1414 19.3961 18.2239C20.0323 18.5624 20.5048 18.9983 20.5048 18.9983C20.6415 19.1237 20.8621 19.1211 20.9951 18.9929L21.8605 18.1603C21.9934 18.0324 21.9964 17.8201 21.8658 17.6885C21.8658 17.6885 21.4506 17.2716 20.9986 16.6616C20.9029 16.5319 20.9029 16.5319 20.9029 16.5319C20.8744 16.3967 20.8923 16.1965 20.9424 16.0875C20.9925 15.9783 21.122 15.6708 21.1513 15.6629C21.1505 15.6647 21.1505 15.6647 21.1798 15.6606C21.9481 15.5367 22.5635 15.5239 22.5635 15.5239C22.7519 15.5203 22.9065 15.3683 22.9065 15.187V14.0098C22.9067 13.8285 22.7532 13.6667 22.5648 13.6514ZM17.1932 17.0647C15.7749 17.0647 14.6244 15.9585 14.6244 14.5934C14.6244 13.2283 15.7741 12.1219 17.1932 12.1219C18.6123 12.1219 19.7618 13.228 19.7618 14.5934C19.761 15.9585 18.6113 17.0647 17.1932 17.0647Z" fill="#8C8C8C"/>
</svg>
