<svg width="34" height="25" viewBox="0 0 34 25" fill="none" xmlns="http://www.w3.org/2000/svg">
<path d="M31.406 11.0061H31.0178L29.7979 5.62109C29.7191 5.26345 29.5202 4.94368 29.2341 4.71509C28.948 4.4865 28.592 4.36284 28.2258 4.36499H23.301V2.75317C23.3005 2.15492 23.0626 1.58133 22.6396 1.1582C22.2167 0.735077 21.6432 0.496888 21.0449 0.496094H2.927C2.32874 0.496888 1.75521 0.735077 1.33228 1.1582C0.909337 1.58133 0.671428 2.15492 0.670898 2.75317V18.614C0.671692 19.2121 0.909609 19.7856 1.33252 20.2085C1.75543 20.6314 2.32892 20.8693 2.927 20.8701H4.75391C4.97555 21.8967 5.54214 22.8162 6.35938 23.4758C7.17661 24.1354 8.19514 24.4954 9.24536 24.4954C10.2956 24.4954 11.3141 24.1354 12.1313 23.4758C12.9486 22.8162 13.5152 21.8967 13.7368 20.8701H23.0168C23.2391 21.9046 23.8116 22.8306 24.6377 23.4917C25.4637 24.1528 26.4928 24.5085 27.5508 24.4988C28.6088 24.489 29.6311 24.1145 30.4448 23.4382C31.2585 22.762 31.8137 21.8255 32.0168 20.7871C32.4911 20.6543 32.9088 20.3701 33.2065 19.9778C33.5042 19.5855 33.6657 19.1065 33.666 18.614V13.2622C33.6655 12.664 33.4276 12.0904 33.0046 11.6675C32.5817 11.2445 32.0081 11.0066 31.4099 11.0061H31.406ZM31.728 13.2622V18.0962C31.3757 17.2723 30.79 16.5694 30.0432 16.0742C29.2964 15.579 28.4212 15.313 27.5251 15.3091C26.6291 15.3051 25.7513 15.5634 25.0002 16.052C24.2492 16.5406 23.6574 17.2384 23.2979 18.0591V12.9402H31.406C31.4914 12.9402 31.5732 12.974 31.6335 13.0344C31.6939 13.0948 31.728 13.1768 31.728 13.2622ZM27.968 6.29907L29.0339 11.0061H23.301V6.29614L27.968 6.29907ZM15.168 2.43115V5.92505L12.3469 4.79199C12.1155 4.69966 11.8574 4.69966 11.626 4.79199L8.80591 5.92505V2.43115H15.168ZM2.60596 18.614V2.75317C2.60596 2.66777 2.63981 2.58578 2.7002 2.52539C2.76058 2.465 2.84258 2.43115 2.92798 2.43115H6.87085V7.3562C6.87062 7.51456 6.90931 7.67035 6.9834 7.8103C7.05749 7.95026 7.16481 8.0701 7.2959 8.15894C7.42699 8.24778 7.57791 8.30311 7.73535 8.32007C7.8928 8.33702 8.05198 8.315 8.19897 8.2561L11.9868 6.73511L15.7749 8.2561C15.9218 8.31504 16.0811 8.33701 16.2385 8.32007C16.3959 8.30312 16.5467 8.2478 16.6777 8.15894C16.8088 8.07007 16.916 7.95028 16.99 7.8103C17.064 7.67033 17.1022 7.51452 17.1018 7.3562V2.43115H21.0459C21.1313 2.43115 21.2133 2.465 21.2737 2.52539C21.3341 2.58578 21.3679 2.66777 21.3679 2.75317V18.936H13.738C13.5173 17.9087 12.9509 16.988 12.1335 16.3276C11.3162 15.6672 10.2971 15.3071 9.24634 15.3071C8.19555 15.3071 7.17672 15.6672 6.35938 16.3276C5.54203 16.988 4.97561 17.9087 4.75488 18.936H2.92798C2.88527 18.9367 2.84287 18.929 2.80322 18.9131C2.76358 18.8972 2.72745 18.8735 2.69702 18.8435C2.66659 18.8135 2.64247 18.7779 2.62598 18.7385C2.60948 18.6991 2.60082 18.6567 2.60083 18.614H2.60596ZM9.24683 22.562C8.72064 22.5622 8.20639 22.4065 7.7688 22.1143C7.33121 21.8221 6.99003 21.4065 6.78857 20.9204C6.58712 20.4343 6.53436 19.8994 6.63696 19.3833C6.73957 18.8672 6.99292 18.3933 7.36499 18.0212C7.73706 17.6492 8.21121 17.3958 8.72729 17.2932C9.24338 17.1906 9.77831 17.2434 10.2644 17.4448C10.7505 17.6463 11.1658 17.9872 11.458 18.4248C11.7502 18.8624 11.9062 19.3769 11.906 19.9031C11.9049 20.608 11.6244 21.2838 11.126 21.7822C10.6275 22.2807 9.95171 22.561 9.24683 22.562ZM27.509 22.562C26.9409 22.562 26.3876 22.38 25.9304 22.0427C25.4732 21.7055 25.1362 21.2308 24.9685 20.688C24.8008 20.1452 24.8113 19.563 24.9985 19.0266C25.1858 18.4903 25.5402 18.028 26.0093 17.7075C26.4784 17.3871 27.0377 17.2252 27.6055 17.2458C28.1732 17.2665 28.7194 17.4684 29.1641 17.822C29.6087 18.1756 29.9285 18.6624 30.0764 19.2109C30.2243 19.7595 30.1924 20.3409 29.9858 20.8701C29.7902 21.3696 29.4485 21.7984 29.0051 22.1003C28.5617 22.4023 28.0374 22.5631 27.501 22.562H27.509Z" fill="#9DCDFF"/>
<path d="M14.51 12.1965H18.425C18.6815 12.1965 18.9273 12.0947 19.1086 11.9133C19.29 11.732 19.3918 11.486 19.3918 11.2295C19.3918 10.973 19.29 10.7272 19.1086 10.5459C18.9273 10.3646 18.6815 10.2627 18.425 10.2627H14.51C14.2535 10.2627 14.0075 10.3646 13.8262 10.5459C13.6448 10.7272 13.543 10.973 13.543 11.2295C13.543 11.486 13.6448 11.732 13.8262 11.9133C14.0075 12.0947 14.2535 12.1965 14.51 12.1965Z" fill="#9DCDFF"/>
<path d="M18.4253 14.6621H15.7952C15.5387 14.6621 15.2927 14.764 15.1113 14.9453C14.93 15.1267 14.8281 15.3727 14.8281 15.6292C14.8281 15.8856 14.93 16.1314 15.1113 16.3127C15.2927 16.4941 15.5387 16.5962 15.7952 16.5962H18.4253C18.6818 16.5962 18.9275 16.4941 19.1089 16.3127C19.2902 16.1314 19.3921 15.8856 19.3921 15.6292C19.3921 15.3727 19.2902 15.1267 19.1089 14.9453C18.9275 14.764 18.6818 14.6621 18.4253 14.6621Z" fill="#9DCDFF"/>
</svg>
