<svg width="36" height="36" viewBox="0 0 36 36" fill="none" xmlns="http://www.w3.org/2000/svg">
<path d="M32 0H4C1.79086 0 0 1.79086 0 4V32C0 34.2091 1.79086 36 4 36H32C34.2091 36 36 34.2091 36 32V4C36 1.79086 34.2091 0 32 0Z" fill="white"/>
<path d="M15.6576 25.3816H10.3856C9.77955 25.3808 9.19856 25.1397 8.77002 24.7112C8.34148 24.2826 8.1004 23.7016 8.09961 23.0956V10.3866C8.1004 9.78056 8.34148 9.19959 8.77002 8.77106C9.19856 8.34252 9.77955 8.10138 10.3856 8.10059H19.8406C20.4466 8.10138 21.0276 8.34252 21.4562 8.77106C21.8847 9.19959 22.1258 9.78056 22.1266 10.3866V15.4056C22.1204 15.5557 22.0564 15.6975 21.948 15.8015C21.8397 15.9054 21.6953 15.9635 21.5451 15.9635C21.3949 15.9635 21.2506 15.9054 21.1422 15.8015C21.0338 15.6975 20.9698 15.5557 20.9636 15.4056V10.3866C20.9633 10.0887 20.845 9.80317 20.6345 9.59247C20.4239 9.38176 20.1385 9.26316 19.8406 9.26263H10.3856C10.0876 9.26316 9.80208 9.38173 9.5914 9.59241C9.38072 9.80308 9.26213 10.0887 9.2616 10.3866V23.0956C9.26213 23.3935 9.38072 23.6792 9.5914 23.8898C9.80208 24.1005 10.0876 24.2191 10.3856 24.2196H15.6576C15.8117 24.2196 15.9595 24.2808 16.0684 24.3898C16.1774 24.4987 16.2386 24.6465 16.2386 24.8006C16.2386 24.9547 16.1774 25.1025 16.0684 25.2114C15.9595 25.3204 15.8117 25.3816 15.6576 25.3816Z" fill="#0050A6"/>
<path d="M14.9391 12.5956H11.1391C10.9849 12.5956 10.837 12.5343 10.7279 12.4253C10.6189 12.3162 10.5576 12.1683 10.5576 12.0141C10.5576 11.8599 10.6189 11.712 10.7279 11.6029C10.837 11.4939 10.9849 11.4326 11.1391 11.4326H14.9391C15.0933 11.4326 15.2413 11.4939 15.3503 11.6029C15.4594 11.712 15.5206 11.8599 15.5206 12.0141C15.5206 12.1683 15.4594 12.3162 15.3503 12.4253C15.2413 12.5343 15.0933 12.5956 14.9391 12.5956V12.5956Z" fill="#0050A6"/>
<path d="M15.7912 19.1821H11.1422C11.0638 19.1853 10.9856 19.1727 10.9122 19.1449C10.8388 19.1172 10.7718 19.0748 10.7152 19.0205C10.6586 18.9662 10.6135 18.901 10.5828 18.8289C10.552 18.7567 10.5361 18.6791 10.5361 18.6006C10.5361 18.5221 10.552 18.4444 10.5828 18.3723C10.6135 18.3001 10.6586 18.2349 10.7152 18.1806C10.7718 18.1263 10.8388 18.084 10.9122 18.0562C10.9856 18.0285 11.0638 18.0158 11.1422 18.0191H15.7912C15.8696 18.0158 15.9479 18.0285 16.0213 18.0562C16.0947 18.084 16.1617 18.1263 16.2183 18.1806C16.2749 18.2349 16.32 18.3001 16.3507 18.3723C16.3815 18.4444 16.3974 18.5221 16.3974 18.6006C16.3974 18.6791 16.3815 18.7567 16.3507 18.8289C16.32 18.901 16.2749 18.9662 16.2183 19.0205C16.1617 19.0748 16.0947 19.1172 16.0213 19.1449C15.9479 19.1727 15.8696 19.1853 15.7912 19.1821V19.1821Z" fill="#0050A6"/>
<path d="M19.0454 15.9266H11.1454C10.9914 15.9266 10.8436 15.8654 10.7346 15.7565C10.6257 15.6475 10.5645 15.4997 10.5645 15.3456C10.5645 15.1916 10.6257 15.0438 10.7346 14.9348C10.8436 14.8259 10.9914 14.7646 11.1454 14.7646H19.0454C19.1995 14.7646 19.3473 14.8259 19.4563 14.9348C19.5652 15.0438 19.6265 15.1916 19.6265 15.3456C19.6265 15.4997 19.5652 15.6475 19.4563 15.7565C19.3473 15.8654 19.1995 15.9266 19.0454 15.9266Z" fill="#0050A6"/>
<path d="M22.5527 25.4595C22.3986 25.4595 22.2508 25.3983 22.1419 25.2893C22.0329 25.1803 21.9717 25.0326 21.9717 24.8785V20.2285C21.9717 20.0744 22.0329 19.9266 22.1419 19.8177C22.2508 19.7087 22.3986 19.6475 22.5527 19.6475C22.7068 19.6475 22.8546 19.7087 22.9635 19.8177C23.0725 19.9266 23.1337 20.0744 23.1337 20.2285V24.8785C23.1337 25.0326 23.0725 25.1803 22.9635 25.2893C22.8546 25.3983 22.7068 25.4595 22.5527 25.4595V25.4595Z" fill="#238EFF"/>
<path d="M24.8775 23.1337H20.2275C20.0734 23.1337 19.9256 23.0725 19.8167 22.9635C19.7077 22.8545 19.6465 22.7068 19.6465 22.5527C19.6465 22.3986 19.7077 22.2508 19.8167 22.1418C19.9256 22.0329 20.0734 21.9717 20.2275 21.9717H24.8775C25.0316 21.9717 25.1793 22.0329 25.2883 22.1418C25.3973 22.2508 25.4585 22.3986 25.4585 22.5527C25.4585 22.7068 25.3973 22.8545 25.2883 22.9635C25.1793 23.0725 25.0316 23.1337 24.8775 23.1337Z" fill="#238EFF"/>
<path d="M22.5531 27.9001C21.4955 27.9001 20.4617 27.5864 19.5824 26.9989C18.7031 26.4114 18.0178 25.5763 17.6131 24.5993C17.2084 23.6222 17.1025 22.5471 17.3088 21.5099C17.5151 20.4727 18.0244 19.52 18.7722 18.7722C19.5199 18.0244 20.4727 17.5151 21.5099 17.3088C22.5471 17.1025 23.6222 17.2084 24.5993 17.6131C25.5763 18.0178 26.4114 18.7031 26.9989 19.5824C27.5865 20.4617 27.9 21.4955 27.9 22.553C27.8985 23.9707 27.3346 25.3298 26.3322 26.3322C25.3298 27.3346 23.9707 27.8985 22.5531 27.9001ZM22.5531 18.3681C21.7254 18.3681 20.9162 18.6135 20.228 19.0734C19.5398 19.5332 19.0034 20.1868 18.6866 20.9515C18.3699 21.7163 18.287 22.5577 18.4485 23.3695C18.61 24.1813 19.0085 24.9271 19.5938 25.5123C20.1791 26.0976 20.9248 26.4962 21.7366 26.6577C22.5484 26.8191 23.3899 26.7363 24.1546 26.4195C24.9193 26.1028 25.5729 25.5663 26.0328 24.8781C26.4926 24.1899 26.7381 23.3808 26.7381 22.553C26.737 21.4434 26.2957 20.3796 25.5111 19.595C24.7265 18.8104 23.6627 18.3691 22.5531 18.3681V18.3681Z" fill="#238EFF"/>
</svg>
