<svg width="21" height="20" viewBox="0 0 21 20" fill="none" xmlns="http://www.w3.org/2000/svg">
<path d="M17.988 16.875C17.988 17.0294 17.9423 17.1803 17.8565 17.3087C17.7707 17.4371 17.6488 17.5373 17.5062 17.5964C17.3635 17.6556 17.2065 17.671 17.0551 17.641C16.9036 17.6109 16.7644 17.5367 16.6552 17.4276C16.5459 17.3185 16.4714 17.1794 16.4412 17.028C16.4109 16.8765 16.4263 16.7195 16.4852 16.5768C16.5442 16.4341 16.6442 16.312 16.7725 16.2261C16.9008 16.1401 17.0516 16.0942 17.2061 16.094C17.4131 16.0945 17.6115 16.1769 17.7581 16.3232C17.9046 16.4696 17.9872 16.6679 17.988 16.875ZM14.7061 16.094C14.5516 16.0942 14.4008 16.1401 14.2725 16.2261C14.1442 16.312 14.0442 16.4341 13.9852 16.5768C13.9263 16.7195 13.9109 16.8765 13.9412 17.028C13.9714 17.1794 14.0459 17.3185 14.1552 17.4276C14.2644 17.5367 14.4036 17.6109 14.5551 17.641C14.7065 17.671 14.8635 17.6556 15.0062 17.5964C15.1488 17.5373 15.2707 17.4371 15.3565 17.3087C15.4423 17.1803 15.488 17.0294 15.488 16.875C15.4872 16.6679 15.4046 16.4696 15.2581 16.3232C15.1115 16.1769 14.9131 16.0945 14.7061 16.094ZM20.3311 14.219V18.282C20.3311 18.7376 20.1501 19.1746 19.8279 19.4968C19.5057 19.819 19.0687 20 18.613 20H2.05005C1.59431 20 1.15725 19.819 0.8349 19.4968C0.512554 19.1747 0.33132 18.7377 0.331055 18.282V14.219C0.33132 13.7632 0.512521 13.3261 0.834839 13.0038C1.15716 12.6815 1.59422 12.5003 2.05005 12.5H5.93304L3.73303 10.2999C3.51453 10.0813 3.36576 9.80289 3.30548 9.49976C3.24521 9.19662 3.27614 8.88247 3.39441 8.59692C3.51267 8.31137 3.71295 8.06726 3.96991 7.89551C4.22687 7.72376 4.529 7.63204 4.83807 7.63196H6.89703V1.56592C6.8969 1.36071 6.93725 1.15752 7.01569 0.967896C7.09413 0.77827 7.20913 0.605966 7.35419 0.460815C7.49925 0.315664 7.67151 0.200509 7.86108 0.121948C8.05066 0.0433879 8.25384 0.00292965 8.45905 0.00292969H12.209C12.6236 0.00292969 13.0212 0.167696 13.3143 0.460815C13.6074 0.753935 13.772 1.15138 13.772 1.56592V7.63196H15.8301C16.139 7.63232 16.441 7.72424 16.6978 7.896C16.9546 8.06775 17.1547 8.31165 17.273 8.59705C17.3913 8.88244 17.4225 9.19644 17.3625 9.49951C17.3025 9.80258 17.1541 10.0811 16.936 10.2999L14.7361 12.5H18.6191C19.0738 12.5019 19.5092 12.6838 19.8301 13.006C20.1509 13.3282 20.3311 13.7643 20.3311 14.219ZM10.1091 14.911C10.1677 14.9692 10.247 15.0018 10.3296 15.0018C10.4122 15.0018 10.4914 14.9692 10.55 14.911L16.05 9.41101C16.0937 9.36699 16.1233 9.31095 16.1352 9.25012C16.1471 9.1893 16.1407 9.12642 16.1168 9.06921C16.093 9.01201 16.0527 8.96309 16.0012 8.92871C15.9496 8.89433 15.8891 8.87599 15.8271 8.87598H12.527V1.55994C12.5268 1.477 12.4938 1.39763 12.4351 1.33899C12.3765 1.28035 12.297 1.24721 12.2141 1.24695H8.46405C8.38121 1.24721 8.30189 1.28032 8.24341 1.33899C8.18493 1.39766 8.15204 1.4771 8.15204 1.55994V8.87598H4.84308C4.78119 8.87618 4.72072 8.89462 4.66931 8.92908C4.6179 8.96353 4.5778 9.01242 4.55408 9.06958C4.53036 9.12674 4.5241 9.18963 4.53601 9.25037C4.54792 9.3111 4.57747 9.36705 4.62103 9.41101L10.121 14.911H10.1091ZM19.0811 14.219C19.0808 14.0949 19.0315 13.9758 18.9438 13.8879C18.8561 13.8001 18.7372 13.7505 18.613 13.75H13.48L11.4371 15.793C11.1438 16.086 10.7461 16.2506 10.3315 16.2506C9.91695 16.2506 9.51935 16.086 9.22607 15.793L7.18304 13.75H2.05005C1.92574 13.7503 1.80665 13.7997 1.71875 13.8876C1.63085 13.9755 1.58132 14.0947 1.58105 14.219V18.282C1.58158 18.4061 1.63119 18.525 1.71906 18.6127C1.80692 18.7004 1.92592 18.7497 2.05005 18.75H18.613C18.737 18.7495 18.8558 18.7 18.9434 18.6123C19.0311 18.5247 19.0805 18.4059 19.0811 18.282V14.219Z" fill="#0050A6"/>
</svg>
