<svg width="30" height="27" viewBox="0 0 30 27" fill="none" xmlns="http://www.w3.org/2000/svg">
<path d="M12.7392 0.148438H12.7322C12.7149 0.150319 12.6979 0.153658 12.6812 0.158432C12.6395 0.164699 12.5988 0.176472 12.5602 0.193436L0.998185 5.13843C0.880238 5.15803 0.773236 5.21924 0.696549 5.31097C0.619862 5.40271 0.578599 5.51888 0.580216 5.63843V20.6384C0.57873 20.6587 0.57873 20.6791 0.580216 20.6994V20.7094L0.586197 20.7404C0.600401 20.8235 0.635314 20.9015 0.68776 20.9675C0.740206 21.0334 0.808473 21.0849 0.886185 21.1174L12.5542 26.1074C12.61 26.1312 12.6696 26.1445 12.7302 26.1464H12.8202C12.8712 26.1422 12.9212 26.1297 12.9682 26.1094L19.3122 23.3964C19.7749 24.2021 20.4341 24.8775 21.2283 25.3595C22.0226 25.8415 22.9261 26.1145 23.8544 26.1529C24.7827 26.1913 25.7056 25.9939 26.537 25.5792C27.3684 25.1644 28.0811 24.5458 28.6088 23.7811C29.1364 23.0163 29.4617 22.1304 29.5543 21.2059C29.647 20.2815 29.5039 19.3486 29.1385 18.4944C28.7731 17.6402 28.1972 16.8924 27.4646 16.321C26.732 15.7495 25.8666 15.373 24.9492 15.2264V5.63843C24.9506 5.51799 24.9085 5.40111 24.8306 5.30925C24.7527 5.21739 24.6443 5.15673 24.5252 5.13843L12.9682 0.195435C12.9268 0.177081 12.8831 0.164624 12.8382 0.158432H12.7382L12.7392 0.148438ZM12.7662 1.19144L15.2172 2.23743L4.83217 6.68143L4.8022 6.69543L2.35121 5.64644L12.7692 1.19144H12.7662ZM16.4892 2.78244L19.4642 4.05643L8.8802 8.58144C8.76207 8.62659 8.66542 8.71484 8.60976 8.8284C8.55409 8.94196 8.54355 9.0724 8.58022 9.19344V14.4934L7.49617 12.8684C7.42855 12.7667 7.32606 12.6932 7.20796 12.6619C7.08987 12.6306 6.96434 12.6436 6.85518 12.6984L5.58022 13.3354V7.44844L16.4902 2.78244H16.4892ZM20.7312 4.59743L23.1842 5.64644L12.7662 10.1034L10.3152 9.05443L20.7042 4.61043L20.7312 4.59743ZM1.57918 6.40543L4.57918 7.68944V14.1484C4.57935 14.2334 4.60122 14.317 4.64265 14.3912C4.68409 14.4654 4.74373 14.5278 4.81599 14.5725C4.88826 14.6173 4.97072 14.6429 5.05562 14.6469C5.14051 14.6509 5.22501 14.6332 5.30116 14.5954L6.90718 13.7954L8.63521 16.3874C8.68174 16.4773 8.75443 16.551 8.8437 16.5986C8.93298 16.6463 9.03464 16.6658 9.13521 16.6544C9.15313 16.6527 9.17085 16.6493 9.18819 16.6444H9.20418L9.23219 16.6284C9.27964 16.6134 9.3245 16.5911 9.36519 16.5624C9.44036 16.5103 9.4998 16.4385 9.537 16.3549C9.57421 16.2714 9.58775 16.1792 9.57619 16.0884V9.82843L12.2632 10.9764V24.8924L1.57619 20.3204V6.40543H1.57918ZM23.9542 6.40543V15.1544C22.7287 15.176 21.5461 15.6092 20.5966 16.3842C19.6471 17.1592 18.9858 18.2311 18.7192 19.4274C18.6848 19.434 18.6513 19.4444 18.6192 19.4584L17.4962 19.9384L14.5802 21.1844C14.5198 21.2102 14.465 21.2476 14.4191 21.2944C14.3731 21.3413 14.3368 21.3968 14.3123 21.4578C14.2878 21.5187 14.2755 21.5838 14.2762 21.6495C14.2769 21.7151 14.2904 21.78 14.3162 21.8404C14.3419 21.9008 14.3793 21.9556 14.4262 22.0015C14.4731 22.0475 14.5286 22.0838 14.5895 22.1083C14.6504 22.1328 14.7156 22.1451 14.7813 22.1444C14.8469 22.1438 14.9118 22.1302 14.9722 22.1044L17.8882 20.8564L18.5882 20.5564C18.5782 21.2115 18.6852 21.863 18.9042 22.4804L13.2712 24.8904V10.9754L23.9592 6.40543H23.9542ZM24.0792 16.1444C24.6707 16.144 25.2565 16.2605 25.8028 16.4874C26.3491 16.7143 26.8451 17.047 27.2622 17.4664C27.9984 18.2026 28.4565 19.1712 28.5585 20.2072C28.6606 21.2432 28.4003 22.2826 27.822 23.1483C27.2437 24.0139 26.3831 24.6523 25.3869 24.9545C24.3907 25.2568 23.3205 25.2044 22.3587 24.8061C21.3968 24.4078 20.6028 23.6884 20.1119 22.7703C19.621 21.8522 19.4636 20.7924 19.6665 19.7713C19.8694 18.7502 20.4201 17.8311 21.2247 17.1705C22.0294 16.5099 23.0381 16.1487 24.0792 16.1484V16.1444ZM24.0792 17.1444C23.9803 17.1444 23.8836 17.1738 23.8014 17.2287C23.7192 17.2836 23.6551 17.3617 23.6173 17.4531C23.5794 17.5445 23.5695 17.645 23.5888 17.742C23.6081 17.839 23.6557 17.9281 23.7257 17.998C23.7956 18.0679 23.8847 18.1155 23.9816 18.1348C24.0786 18.1541 24.1792 18.1442 24.2705 18.1064C24.3619 18.0685 24.44 18.0044 24.4949 17.9222C24.5499 17.84 24.5792 17.7433 24.5792 17.6444C24.5786 17.5122 24.5257 17.3855 24.432 17.2922C24.3383 17.1988 24.2114 17.1464 24.0792 17.1464V17.1444ZM17.6732 17.8974C17.6111 17.901 17.5502 17.9156 17.4932 17.9404L14.5772 19.1894C14.5141 19.2133 14.4565 19.2496 14.4078 19.2962C14.3591 19.3429 14.3204 19.399 14.2939 19.461C14.2674 19.523 14.2538 19.5897 14.2538 19.6572C14.2538 19.7246 14.2674 19.7914 14.2939 19.8534C14.3204 19.9154 14.3591 19.9714 14.4078 20.0181C14.4565 20.0648 14.5141 20.1011 14.5772 20.1249C14.6402 20.1488 14.7075 20.1596 14.7749 20.1568C14.8422 20.1539 14.9083 20.1375 14.9692 20.1084L17.8852 18.8604C17.9948 18.8162 18.0852 18.7345 18.1403 18.63C18.1954 18.5254 18.2116 18.4047 18.1862 18.2893C18.1608 18.1739 18.0953 18.0712 18.0014 17.9995C17.9075 17.9277 17.7912 17.8916 17.6732 17.8974ZM24.0732 19.1264C23.9406 19.1264 23.8134 19.1791 23.7196 19.2729C23.6259 19.3666 23.5732 19.4938 23.5732 19.6264V23.6384C23.5713 23.771 23.6222 23.899 23.7147 23.994C23.8071 24.0891 23.9336 24.1436 24.0662 24.1454C24.1988 24.1473 24.3267 24.0964 24.4218 24.0039C24.5168 23.9115 24.5713 23.785 24.5732 23.6524V19.7184C24.5854 19.6538 24.5847 19.5874 24.5711 19.5231C24.5576 19.4588 24.5315 19.3977 24.4943 19.3435C24.4572 19.2892 24.4097 19.2428 24.3546 19.207C24.2995 19.1711 24.2378 19.1464 24.1732 19.1344C24.1395 19.1288 24.1053 19.1268 24.0712 19.1284L24.0732 19.1264Z" fill="#0050A6"/>
</svg>
