<svg width="18" height="22" viewBox="0 0 18 22" fill="none" xmlns="http://www.w3.org/2000/svg">
<path d="M15.875 3.48883H14V1.45386C13.9997 1.32955 13.9502 1.21039 13.8623 1.1225C13.7744 1.0346 13.6553 0.985127 13.531 0.984863H13.219C13.0947 0.985127 12.9756 1.0346 12.8877 1.1225C12.7998 1.21039 12.7503 1.32955 12.75 1.45386V3.48883H5.25V1.45386C5.24974 1.32955 5.2002 1.21039 5.11231 1.1225C5.02441 1.0346 4.90531 0.985127 4.78101 0.984863H4.46899C4.34469 0.985127 4.22559 1.0346 4.1377 1.1225C4.0498 1.21039 4.00026 1.32955 4 1.45386V3.48883H2.125C1.62736 3.48936 1.15031 3.68751 0.798706 4.03967C0.447104 4.39184 0.249735 4.86918 0.25 5.36682V19.1378C0.249735 19.6355 0.447104 20.1129 0.798706 20.465C1.15031 20.8172 1.62736 21.0153 2.125 21.0159H15.875C16.3726 21.0153 16.8497 20.8172 17.2013 20.465C17.5529 20.1129 17.7503 19.6355 17.75 19.1378V5.36682C17.7503 4.86918 17.5529 4.39184 17.2013 4.03967C16.8497 3.68751 16.3726 3.48936 15.875 3.48883ZM2.125 4.74084H15.875C16.0408 4.74137 16.1995 4.80755 16.3167 4.92487C16.4338 5.04218 16.4997 5.20105 16.5 5.36682V7.24384H1.5V5.36682C1.50105 5.20157 1.56729 5.04342 1.68433 4.92676C1.80137 4.81009 1.95975 4.74436 2.125 4.74384V4.74084ZM15.875 19.7639H2.125C1.95923 19.7633 1.80047 19.6971 1.68335 19.5798C1.56623 19.4625 1.50026 19.3036 1.5 19.1378V8.49585H16.5V19.1378C16.4997 19.3036 16.4338 19.4625 16.3167 19.5798C16.1995 19.6971 16.0408 19.7633 15.875 19.7639ZM6.03101 13.5038H4.46899C4.34469 13.5036 4.22559 13.4541 4.1377 13.3662C4.0498 13.2783 4.00026 13.1592 4 13.0349V11.4698C4.00026 11.3455 4.0497 11.2262 4.13757 11.1381C4.22544 11.0501 4.3446 11.0004 4.46899 10.9999H6.03101C6.1554 11.0004 6.27456 11.0501 6.36243 11.1381C6.4503 11.2262 6.49974 11.3455 6.5 11.4698V13.0349C6.49974 13.1592 6.4502 13.2783 6.36231 13.3662C6.27441 13.4541 6.15531 13.5036 6.03101 13.5038ZM9.78101 13.5038H8.21899C8.09469 13.5036 7.97559 13.4541 7.8877 13.3662C7.7998 13.2783 7.75026 13.1592 7.75 13.0349V11.4698C7.75026 11.3455 7.7997 11.2262 7.88757 11.1381C7.97544 11.0501 8.0946 11.0004 8.21899 10.9999H9.78101C9.9054 11.0004 10.0246 11.0501 10.1124 11.1381C10.2003 11.2262 10.2497 11.3455 10.25 11.4698V13.0349C10.2497 13.1592 10.2002 13.2783 10.1123 13.3662C10.0244 13.4541 9.90531 13.5036 9.78101 13.5038ZM13.531 13.5038H11.969C11.8447 13.5036 11.7256 13.4541 11.6377 13.3662C11.5498 13.2783 11.5003 13.1592 11.5 13.0349V11.4698C11.5003 11.3455 11.5497 11.2262 11.6376 11.1381C11.7254 11.0501 11.8446 11.0004 11.969 10.9999H13.531C13.6554 11.0004 13.7746 11.0501 13.8624 11.1381C13.9503 11.2262 13.9997 11.3455 14 11.4698V13.0349C13.9997 13.1592 13.9502 13.2783 13.8623 13.3662C13.7744 13.4541 13.6553 13.5036 13.531 13.5038ZM9.78101 17.2598H8.21899C8.09469 17.2596 7.97559 17.2101 7.8877 17.1222C7.7998 17.0343 7.75026 16.9151 7.75 16.7908V15.2258C7.75026 15.1014 7.7997 14.9822 7.88757 14.8942C7.97544 14.8061 8.0946 14.7564 8.21899 14.7559H9.78101C9.9054 14.7564 10.0246 14.8061 10.1124 14.8942C10.2003 14.9822 10.2497 15.1014 10.25 15.2258V16.7908C10.2497 16.9151 10.2002 17.0343 10.1123 17.1222C10.0244 17.2101 9.90531 17.2596 9.78101 17.2598ZM6.03101 17.2598H4.46899C4.34469 17.2596 4.22559 17.2101 4.1377 17.1222C4.0498 17.0343 4.00026 16.9151 4 16.7908V15.2258C4.00026 15.1014 4.0497 14.9822 4.13757 14.8942C4.22544 14.8061 4.3446 14.7564 4.46899 14.7559H6.03101C6.1554 14.7564 6.27456 14.8061 6.36243 14.8942C6.4503 14.9822 6.49974 15.1014 6.5 15.2258V16.7908C6.49974 16.9151 6.4502 17.0343 6.36231 17.1222C6.27441 17.2101 6.15531 17.2596 6.03101 17.2598ZM13.531 17.2598H11.969C11.8447 17.2596 11.7256 17.2101 11.6377 17.1222C11.5498 17.0343 11.5003 16.9151 11.5 16.7908V15.2258C11.5003 15.1014 11.5497 14.9822 11.6376 14.8942C11.7254 14.8061 11.8446 14.7564 11.969 14.7559H13.531C13.6554 14.7564 13.7746 14.8061 13.8624 14.8942C13.9503 14.9822 13.9997 15.1014 14 15.2258V16.7908C13.9997 16.9151 13.9502 17.0343 13.8623 17.1222C13.7744 17.2101 13.6553 17.2596 13.531 17.2598Z" fill="#0050A6"/>
</svg>
