<svg width="10" height="11" viewBox="0 0 10 11" fill="none" xmlns="http://www.w3.org/2000/svg">
<path d="M6.29919 9.33331L5.44324 9.73834V5.48431L7.01929 4.75232V5.93433C7.01581 5.96259 7.02033 5.99128 7.03235 6.01709C7.04437 6.0429 7.06341 6.0648 7.08728 6.08032L7.52625 6.33929C7.54988 6.35343 7.57672 6.36135 7.60425 6.3623C7.6304 6.36178 7.65608 6.3554 7.67944 6.34363C7.70281 6.33186 7.72327 6.31502 7.73926 6.29431L8.21228 5.72034C8.2363 5.69185 8.25181 5.65718 8.2572 5.6203V4.19031L9.60828 3.53833V6.56531C9.72623 6.62738 9.83885 6.69894 9.94519 6.7793V3.2793C9.94519 3.2683 9.95728 3.24531 9.95728 3.23431V3.22131C9.95728 3.20931 9.95719 3.1983 9.94519 3.1983C9.94519 3.19539 9.94408 3.19261 9.94202 3.19055C9.93995 3.18849 9.93712 3.18732 9.9342 3.18732C9.9342 3.17632 9.92323 3.17631 9.91223 3.16431L9.90027 3.15332L9.88928 3.14233C9.88775 3.14234 9.88617 3.14203 9.88477 3.14142C9.88336 3.1408 9.88214 3.13986 9.8811 3.13873C9.88007 3.1376 9.87927 3.13628 9.87878 3.13483C9.87829 3.13337 9.87816 3.13184 9.8783 3.13031H9.86719L5.30823 1.01532C5.28557 1.00397 5.26057 0.998047 5.23523 0.998047C5.20989 0.998047 5.18489 1.00397 5.16223 1.01532L3.4292 1.81531H3.41821L2.51819 2.24231H2.5072L0.594238 3.1203H0.582275C0.579358 3.1203 0.576526 3.12147 0.574463 3.12354C0.5724 3.1256 0.571289 3.12837 0.571289 3.13129L0.560303 3.14331L0.549194 3.1543L0.526245 3.17731L0.515259 3.18829C0.514133 3.19664 0.510277 3.20442 0.504272 3.21033L0.492188 3.22229V7.9043C0.493987 7.93685 0.504215 7.96841 0.521729 7.99591C0.539242 8.02341 0.563548 8.04595 0.592285 8.06134L5.16125 10.1613H5.1842C5.1952 10.1613 5.21725 10.1723 5.22925 10.1723C5.24506 10.1738 5.26094 10.1699 5.27429 10.1613H5.29626L6.41028 9.64331C6.37828 9.54731 6.33319 9.44631 6.29919 9.33331ZM7.92029 5.56329L7.59326 5.97931L7.3573 5.8443V4.60632L7.92029 4.34729V5.56329ZM5.23022 1.36334L9.39429 3.27734L8.0553 3.8963L3.89026 1.9823L5.23022 1.36334ZM3.48523 2.16333L7.64929 4.07629L7.14319 4.31232L2.97925 2.39929L3.48523 2.16333ZM5.1062 9.7373L0.829224 7.79028V3.53632L5.1062 5.48334V9.7373ZM5.23022 5.19031L1.06519 3.27734L2.58521 2.57733L6.74927 4.4903L5.23022 5.19031Z" fill="white"/>
<path d="M2.12427 8.00568V7.27368L1.82422 7.13867V7.87067L2.12427 8.00568Z" fill="white"/>
<path d="M2.48376 8.17511V7.44312L2.25879 7.33008V8.06213L2.48376 8.17511Z" fill="white"/>
<path d="M1.66309 7.7915V7.05951L1.49414 6.98047V7.71252L1.66309 7.7915Z" fill="white"/>
<path d="M1.34814 7.64551V6.91351L1.12305 6.81348V7.54547L1.34814 7.64551Z" fill="white"/>
<path d="M8.38105 9.05298C8.21416 9.05298 8.05107 9.00353 7.9123 8.91083C7.77352 8.81814 7.66529 8.68639 7.60138 8.53223C7.53747 8.37807 7.52068 8.20838 7.55317 8.04468C7.58565 7.88099 7.66594 7.73063 7.78388 7.61255C7.90182 7.49448 8.05211 7.41403 8.21576 7.38135C8.37942 7.34867 8.54908 7.36523 8.70331 7.42896C8.85755 7.49269 8.98948 7.60072 9.08234 7.73939C9.1752 7.87805 9.22484 8.04113 9.22504 8.20801C9.22347 8.43146 9.13405 8.64531 8.97614 8.80341C8.81823 8.96151 8.6045 9.05115 8.38105 9.05298ZM8.38105 6.71198C8.18249 6.71011 7.98563 6.74782 7.80182 6.82294C7.61802 6.89806 7.45102 7.00908 7.31061 7.14948C7.17021 7.28989 7.0592 7.45689 6.98408 7.64069C6.90895 7.82449 6.87124 8.02142 6.87311 8.21998C6.87311 9.34498 7.93111 10.437 8.37311 11C8.83411 10.426 9.87311 9.32298 9.87311 8.21998C9.87417 8.02299 9.83632 7.82772 9.76191 7.64533C9.6875 7.46294 9.57794 7.29702 9.4394 7.15699C9.30085 7.01696 9.13612 6.90558 8.95453 6.82923C8.77295 6.75288 8.57803 6.71303 8.38105 6.71198Z" fill="white"/>
</svg>
