<svg width="24" height="22" viewBox="0 0 24 22" fill="none" xmlns="http://www.w3.org/2000/svg">
<path d="M22.21 10.7708V7.84375C22.21 7.49487 22.1254 7.15114 21.9636 6.84204C21.8018 6.53294 21.5676 6.26762 21.281 6.06873L16.781 1.56873C16.4142 1.20313 15.9174 0.997864 15.3995 0.997864C14.8816 0.997864 14.3848 1.20313 14.018 1.56873L13.838 1.75073L13.657 1.56873C13.2906 1.2027 12.7939 0.99707 12.276 0.99707C11.7581 0.99707 11.2614 1.2027 10.895 1.56873L6.77899 5.68475H3.16199C2.58831 5.68555 2.03842 5.91396 1.63306 6.31989C1.22769 6.72582 0.999999 7.27606 1 7.84973V18.8377C1.00026 19.411 1.22815 19.9608 1.63354 20.3662C2.03894 20.7716 2.58867 20.9995 3.16199 20.9998H20.052C20.6252 20.999 21.1746 20.7709 21.5799 20.3656C21.9852 19.9603 22.2132 19.4109 22.214 18.8377V15.9137C22.4484 15.8058 22.647 15.633 22.7863 15.4157C22.9256 15.1984 22.9998 14.9458 23 14.6877V11.9998C22.9999 11.7408 22.9253 11.4872 22.7853 11.2693C22.6452 11.0515 22.4456 10.8784 22.21 10.7708ZM16.225 2.1217L19.788 5.68475H18.131L16.022 3.57574C15.9399 3.65796 15.8424 3.72314 15.735 3.76764C15.6277 3.81214 15.5127 3.83508 15.3965 3.83508C15.2803 3.83508 15.1653 3.81214 15.0579 3.76764C14.9506 3.72314 14.8531 3.65796 14.771 3.57574L12.663 5.68475H11.006L14.569 2.1217C14.7888 1.9026 15.0866 1.7796 15.397 1.7796C15.7074 1.7796 16.0051 1.9026 16.225 2.1217ZM11.443 2.1217C11.6629 1.9023 11.9608 1.77911 12.2715 1.77911C12.5821 1.77911 12.8801 1.9023 13.1 2.1217L13.282 2.30273L9.90002 5.68475H7.88L11.443 2.1217ZM20.043 20.2157H3.15302C2.78691 20.2152 2.43594 20.0695 2.17706 19.8107C1.91819 19.5518 1.7725 19.2008 1.77197 18.8347V7.84375C1.7725 7.47765 1.91819 7.12667 2.17706 6.8678C2.43594 6.60892 2.78691 6.46324 3.15302 6.46271H20.043C20.4091 6.46324 20.76 6.60892 21.0189 6.8678C21.2778 7.12667 21.4235 7.47765 21.424 7.84375V10.6437H15.036C14.3215 10.6437 13.6363 10.9276 13.131 11.4328C12.6258 11.938 12.342 12.6232 12.342 13.3377C12.342 14.0522 12.6258 14.7375 13.131 15.2427C13.6363 15.7479 14.3215 16.0317 15.036 16.0317H21.424V18.8317C21.4243 19.0133 21.3887 19.1931 21.3195 19.361C21.2502 19.5288 21.1485 19.6813 21.0203 19.8099C20.892 19.9384 20.7397 20.0404 20.572 20.11C20.4043 20.1797 20.2246 20.2156 20.043 20.2157ZM22.21 14.6848C22.21 14.7596 22.1952 14.8336 22.1666 14.9027C22.1379 14.9718 22.0959 15.0346 22.043 15.0874C21.99 15.1403 21.9272 15.1822 21.858 15.2107C21.7889 15.2392 21.7148 15.2539 21.64 15.2537H15.04C14.5403 15.2423 14.065 15.0358 13.7156 14.6783C13.3663 14.3209 13.1707 13.841 13.1707 13.3412C13.1707 12.8415 13.3663 12.3615 13.7156 12.0041C14.065 11.6467 14.5403 11.4401 15.04 11.4287H21.64C21.7148 11.4286 21.7889 11.4432 21.858 11.4717C21.9272 11.5003 21.99 11.5422 22.043 11.595C22.0959 11.6479 22.1379 11.7106 22.1666 11.7797C22.1952 11.8488 22.21 11.9229 22.21 11.9977V14.6848Z" fill="#8C8C8C" stroke="#8C8C8C" stroke-width="0.5" stroke-miterlimit="10"/>
</svg>
