<svg width="24" height="18" viewBox="0 0 24 18" fill="none" xmlns="http://www.w3.org/2000/svg">
<path d="M2.22377e-07 2.25C-0.000131137 1.95457 0.0579346 1.66201 0.170899 1.38904C0.283863 1.11606 0.449534 0.868003 0.658386 0.659058C0.867239 0.450113 1.1152 0.284381 1.38812 0.171295C1.66105 0.0582098 1.9536 -2.92039e-08 2.24902 0H15.744C16.3408 0 16.913 0.23704 17.335 0.658997C17.7569 1.08095 17.994 1.65326 17.994 2.25V4.49899H19.523C19.86 4.49902 20.1926 4.5749 20.4962 4.72101C20.7999 4.86711 21.0667 5.07969 21.277 5.34299L23.5 8.117C23.8201 8.51599 23.994 9.01247 23.993 9.52399V12.744C23.993 13.3405 23.7561 13.9125 23.3343 14.3343C22.9125 14.7561 22.3405 14.993 21.744 14.993H20.994C20.994 15.7887 20.6779 16.5517 20.1153 17.1143C19.5527 17.6769 18.7897 17.993 17.994 17.993C17.1984 17.993 16.4353 17.6769 15.8727 17.1143C15.3101 16.5517 14.994 15.7887 14.994 14.993H7.5C7.50172 15.7887 7.18731 16.5524 6.62592 17.1162C6.06453 17.68 5.30212 17.9978 4.50647 17.9995C3.71082 18.0012 2.94713 17.6868 2.3833 17.1254C1.81947 16.564 1.50172 15.8017 1.5 15.006C1.5 14.959 1.5 14.912 1.5 14.866C1.06121 14.7109 0.681302 14.4235 0.412659 14.0434C0.144015 13.6634 -0.000140354 13.2094 2.22377e-07 12.744V2.25ZM1.94 13.43C2.21161 12.9868 2.5937 12.6218 3.04883 12.3708C3.50396 12.1197 4.01651 11.9912 4.53625 11.9979C5.056 12.0045 5.56512 12.1461 6.01367 12.4087C6.46223 12.6714 6.8348 13.046 7.09497 13.496H15.395C15.6593 13.0395 16.0385 12.6602 16.495 12.396V2.25C16.495 2.05109 16.416 1.86032 16.2753 1.71967C16.1347 1.57901 15.9439 1.5 15.745 1.5H2.24902C2.05011 1.5 1.85934 1.57901 1.71869 1.71967C1.57804 1.86032 1.49902 2.05109 1.49902 2.25V12.75C1.49992 12.8936 1.54191 13.034 1.62006 13.1545C1.69821 13.275 1.80923 13.3706 1.94 13.43ZM17.994 11.996C18.521 11.9957 19.0387 12.1341 19.4951 12.3974C19.9515 12.6608 20.3305 13.0397 20.594 13.496H21.745C21.9439 13.496 22.1347 13.417 22.2753 13.2763C22.416 13.1357 22.495 12.9449 22.495 12.746V9.522C22.4945 9.35183 22.4364 9.18682 22.33 9.05399L20.111 6.28C20.0408 6.19221 19.9518 6.12132 19.8506 6.07251C19.7493 6.0237 19.6384 5.99822 19.526 5.99799H17.997L17.994 11.996ZM4.49402 13.496C4.19735 13.496 3.90732 13.584 3.66064 13.7488C3.41397 13.9136 3.22169 14.1479 3.10815 14.422C2.99462 14.6961 2.96495 14.9977 3.02283 15.2886C3.08071 15.5796 3.22357 15.8469 3.43335 16.0567C3.64313 16.2664 3.91038 16.4093 4.20135 16.4672C4.49233 16.525 4.79396 16.4953 5.06805 16.3818C5.34214 16.2683 5.57639 16.076 5.74121 15.8293C5.90603 15.5827 5.99402 15.2927 5.99402 14.996C5.99402 14.5992 5.83677 14.2186 5.55676 13.9375C5.27675 13.6563 4.89678 13.4976 4.5 13.496H4.49402ZM17.994 13.496C17.6973 13.496 17.4073 13.584 17.1606 13.7488C16.914 13.9136 16.7217 14.1479 16.6082 14.422C16.4946 14.6961 16.4649 14.9977 16.5228 15.2886C16.5807 15.5796 16.7236 15.8469 16.9333 16.0567C17.1431 16.2664 17.4104 16.4093 17.7014 16.4672C17.9923 16.525 18.294 16.4953 18.5681 16.3818C18.8421 16.2683 19.0764 16.076 19.2412 15.8293C19.406 15.5827 19.494 15.2927 19.494 14.996C19.494 14.5982 19.336 14.2166 19.0547 13.9353C18.7734 13.654 18.3918 13.496 17.994 13.496Z" fill="#0050A6"/>
</svg>
