<svg width="23" height="17" viewBox="0 0 23 17" fill="none" xmlns="http://www.w3.org/2000/svg">
<path fill-rule="evenodd" clip-rule="evenodd" d="M14.3086 14.3926C14.3083 14.5693 14.238 14.7387 14.1129 14.8636C13.9879 14.9885 13.8183 15.0586 13.6416 15.0586H2.97461C2.79798 15.0586 2.62856 14.9884 2.50366 14.8635C2.37876 14.7386 2.30859 14.5692 2.30859 14.3926V2.39258C2.30846 2.30503 2.3256 2.21832 2.35901 2.13741C2.39242 2.05649 2.44156 1.98295 2.50342 1.92101C2.56527 1.85906 2.63874 1.80991 2.7196 1.77638C2.80047 1.74285 2.88706 1.72559 2.97461 1.72559H13.6416C13.8185 1.72559 13.9882 1.79586 14.1133 1.92094C14.2384 2.04603 14.3086 2.21568 14.3086 2.39258V5.05858C14.3051 5.14828 14.3199 5.23776 14.3518 5.32166C14.3837 5.40555 14.4323 5.48214 14.4945 5.54683C14.5567 5.61152 14.6314 5.66298 14.714 5.69814C14.7966 5.73329 14.8853 5.7514 14.9751 5.7514C15.0649 5.7514 15.1537 5.73329 15.2363 5.69814C15.3189 5.66298 15.3936 5.61152 15.4558 5.54683C15.518 5.48214 15.5666 5.40555 15.5985 5.32166C15.6304 5.23776 15.6451 5.14828 15.6416 5.05858V2.39258C15.6416 1.86215 15.431 1.35345 15.0559 0.978378C14.6808 0.603306 14.172 0.392578 13.6416 0.392578H2.97461C2.44418 0.392578 1.9355 0.603306 1.56042 0.978378C1.18535 1.35345 0.974609 1.86215 0.974609 2.39258V14.3926C0.974609 14.923 1.18535 15.4317 1.56042 15.8068C1.9355 16.1819 2.44418 16.3926 2.97461 16.3926H13.6416C14.172 16.3926 14.6808 16.1819 15.0559 15.8068C15.431 15.4317 15.6416 14.923 15.6416 14.3926V11.7256C15.6451 11.6359 15.6304 11.5464 15.5985 11.4625C15.5666 11.3786 15.518 11.302 15.4558 11.2374C15.3936 11.1727 15.3189 11.1212 15.2363 11.086C15.1537 11.0509 15.0649 11.0328 14.9751 11.0328C14.8853 11.0328 14.7966 11.0509 14.714 11.086C14.6314 11.1212 14.5567 11.1727 14.4945 11.2374C14.4323 11.302 14.3837 11.3786 14.3518 11.4625C14.3199 11.5464 14.3051 11.6359 14.3086 11.7256V14.3926Z" fill="#4B4B4B"/>
<path fill-rule="evenodd" clip-rule="evenodd" d="M22.114 8.86409C22.239 8.73901 22.3092 8.56942 22.3092 8.39259C22.3092 8.21576 22.239 8.04617 22.114 7.9211L18.114 3.9211C17.9888 3.79591 17.819 3.72559 17.642 3.72559C17.4649 3.72559 17.2952 3.79591 17.17 3.9211C17.0449 4.04628 16.9745 4.21606 16.9745 4.3931C16.9745 4.57013 17.0449 4.73991 17.17 4.8651L20.0331 7.7261H8.30896C8.13219 7.7261 7.96276 7.79632 7.83777 7.92131C7.71278 8.0463 7.64258 8.21583 7.64258 8.39259C7.64258 8.56936 7.71278 8.7389 7.83777 8.86389C7.96276 8.98888 8.13219 9.0591 8.30896 9.0591H20.0331L17.17 11.9211C17.0449 12.0463 16.9745 12.2161 16.9745 12.3931C16.9745 12.5701 17.0449 12.7399 17.17 12.8651C17.2952 12.9903 17.4649 13.0606 17.642 13.0606C17.819 13.0606 17.9888 12.9903 18.114 12.8651L22.114 8.86409Z" fill="#4B4B4B"/>
</svg>
