<?xml version="1.0" encoding="utf-8"?>
<!-- Generator: Adobe Illustrator 24.0.0, SVG Export Plug-In . SVG Version: 6.00 Build 0)  -->
<svg version="1.1" id="Layer_1" xmlns="http://www.w3.org/2000/svg" xmlns:xlink="http://www.w3.org/1999/xlink" x="0px" y="0px"
	 viewBox="0 0 14 13" style="enable-background:new 0 0 14 13;" xml:space="preserve">
<style type="text/css">
	.st0{fill:#FFFFFF;}
	.st1{fill:#8C8C8C;}
</style>
<g>
	<path class="st0" d="M1,6.5C1,3.46,3.46,1,6.5,1c0.97,0,1.91,0.25,2.75,0.74C9.49,1.87,9.8,1.79,9.93,1.55
		c0.14-0.24,0.05-0.54-0.18-0.68C6.64-0.92,2.67,0.14,0.87,3.25s-0.73,7.08,2.38,8.88s7.08,0.73,8.88-2.38C12.7,8.76,13,7.64,13,6.5
		C13,6.23,12.78,6,12.5,6S12,6.23,12,6.5C12,9.54,9.54,12,6.5,12S1,9.54,1,6.5z"/>
	<path class="st0" d="M13.86,1.86c0.2-0.2,0.2-0.51,0-0.71s-0.51-0.2-0.71,0l0,0L6.5,7.79L3.86,5.15c-0.2-0.2-0.51-0.2-0.71,0
		s-0.2,0.51,0,0.71l3,3c0.2,0.2,0.51,0.2,0.71,0c0,0,0,0,0,0L13.86,1.86z"/>
</g>
</svg>
